{
  "5" : "General rules after traffic accident",
  "10" : "Vehicle contruction and maintance",
  "1" : "Road traffic rules",
  "6" : "Theory of vehicle driving",
  "9" : "Safety driving rules",
  "2" : "Application of the right of way rules and speed restrictions",
  "7" : "Regulations regarding to documents in case of vehicle using and organizations of time in transport",
  "3" : "Traffic signs and traffic devices",
  "8" : "Conditions for the operation of vehicles in traffic on land roads",
  "4" : "Traffic situations on cross"
}